<?xml version="1.0" encoding="UTF-8" standalone="no"?>
<!DOCTYPE svg PUBLIC "-//W3C//DTD SVG 1.1//EN" "http://www.w3.org/Graphics/SVG/1.1/DTD/svg11.dtd">
<svg width="100%" height="100%" viewBox="0 0 512 512" version="1.1" xmlns="http://www.w3.org/2000/svg" xmlns:xlink="http://www.w3.org/1999/xlink" xml:space="preserve" xmlns:serif="http://www.serif.com/" style="fill-rule:evenodd;clip-rule:evenodd;stroke-linejoin:round;stroke-miterlimit:2;">
    <path d="M143.979,203.677C143.936,194.777 143.926,193.353 143.84,181.961C143.792,176.634 143.748,171.307 143.729,165.979C143.592,129.526 139.964,97.417 115,69C113.824,67.453 113.824,67.453 112.625,65.875C94.913,46.476 67.006,33.2 40.926,31.684C23.394,30.58 23.394,30.58 18.109,24.754C15.242,20.22 15.552,15.169 16,10C41.779,-54.449 154.587,0 224,0L422,0C426.342,3.474 428.595,5.189 431,10C431.661,14.573 431.565,18.557 429.875,22.875C425.554,27.772 421.447,29.427 415.125,29.909C413.373,30.014 411.622,30.14 409.873,30.284C408.952,30.366 408.058,30.445 407.164,30.523C377.909,33.08 350.72,46.732 331.523,68.98C330.249,70.505 330.249,70.505 329,72C311.722,92.627 303.22,118.356 303.973,145.136C304.702,144.16 305.64,143.136 306.841,141.825C309.098,139.689 311.484,137.82 314,136C315.07,135.153 315.07,135.153 316.161,134.289C317.806,133.001 319.485,131.866 321.25,130.75C321.875,130.345 322.5,129.94 323.144,129.523C345.548,115.374 368.907,111.305 395,112L395,113L394.687,113C395.601,113.066 396.52,113.141 397.44,113.227C423.2,116.244 450.574,128.327 467.281,148.809C467.866,149.554 468.433,150.277 469,151C490.814,176.32 495.644,204.845 495.515,237.361C495.497,241.307 495.495,245.253 495.498,249.2C495.504,255.847 495.498,262.495 495.475,269.143C495.449,276.821 495.435,284.499 495.446,292.177C495.458,299.674 495.459,307.17 495.445,314.666C495.439,317.839 495.433,321.012 495.436,324.185C495.467,344.312 495.215,363.764 489.655,383.288C489.369,384.232 489.091,385.147 488.813,386.063C480.775,412.859 466.819,439.525 446.281,458.91C445.506,459.621 444.753,460.31 444,461C415.649,488.309 381.492,505.128 342.418,510.555C341.256,510.706 340.128,510.853 339,511L339,512L301,512L301,511C274.079,507.654 247.153,498.606 224,483.895L224,484C211.242,475.881 211.242,475.881 205.438,470.688C204.8,470.124 204.163,469.561 203.507,468.98C176.416,444.836 157.392,413.781 148.688,378.5C148.445,377.529 148.202,376.557 147.952,375.557C143.851,357.961 143.722,340.369 143.805,322.398C143.808,319.98 143.811,317.562 143.813,315.144C143.821,308.841 143.84,302.539 143.863,296.236C143.883,289.78 143.892,283.323 143.902,276.867C143.924,264.245 143.959,251.622 144,239L111,239C110.67,241.31 110.34,243.62 110,246C107.677,250.314 105.626,253.228 101,255C99.153,255.229 97.44,255.382 95.79,255.386L95.677,255.386C92.568,255.381 89.672,254.836 86.5,253.25C85.606,252.446 84.773,251.669 84.02,250.88C81.717,248.469 80.152,245.937 79.853,242.123C79.838,241.068 79.838,241.068 79.823,239.991L79.784,237.563C79.777,236.7 79.769,235.838 79.762,234.949C79.754,234.058 79.746,233.166 79.737,232.248C79.73,231.304 79.724,230.36 79.719,229.417L79.711,228.002C79.709,227.53 79.707,227.058 79.705,226.586C79.704,226.406 79.703,226.226 79.701,226.047L79.697,225.507C79.677,222.99 79.638,220.473 79.6,217.955C79.589,216.12 79.581,214.285 79.574,212.449C79.557,211.593 79.539,210.736 79.521,209.854L79.522,209.697L79.522,209.694C79.558,204.339 80.42,201.293 84,197C84.169,196.844 84.339,196.69 84.511,196.541C85.026,195.939 85.585,195.325 86.188,194.688C88.288,193.427 90.248,192.69 92.317,192.308C94.103,191.867 95.943,191.748 97.803,191.992L98,192C98.049,192.014 98.097,192.028 98.144,192.041C100.113,192.346 102.101,193.06 104.07,194.23C106.58,196.273 108.554,198.171 109.847,200.767C109.898,200.844 109.949,200.922 110,201L110.018,201.123C110.42,201.994 110.75,202.943 111,204L111,208L111.663,207.997C112.654,207.699 114.102,207.871 116.119,207.861C116.833,207.863 117.546,207.865 118.281,207.867C119.01,207.866 119.739,207.865 120.489,207.864C122.033,207.864 123.576,207.865 125.12,207.87C127.49,207.875 129.86,207.87 132.23,207.863C133.727,207.864 135.223,207.865 136.719,207.867C137.432,207.865 138.146,207.863 138.881,207.861C141.008,207.871 142.231,207.877 143.02,207.966C143.347,207.977 143.673,207.988 144,208L143.979,203.677Z" style="fill:rgb(255,185,0);fill-rule:nonzero;"/>
</svg>
